Emp ID	PL	SL
100003,	12,	10
100004,	12,	10
100006,	12,	10
100010,	12,	10
100012,	12,	10
100018,	12,	10
100019,	12,	10
100020,	12,	10
100022,	12,	10
100024,	12,	10
100028,	12,	10
100029,	12,	10
100032,	12,	10
100034,	12,	10
100035,	12,	10
100036,	12,	10
100038,	12,	10
100039,	12,	10
100040,	12,	10
100041,	12,	10
100042,	12,	10
100043,	12,	10
100044,	12,	10
100045,	12,	10
100046,	12,	10
100047,	12,	10
100048,	12,	10
100049,	12,	10
100050,	12,	10
100051,	12,	10
100052,	12,	10
100053,	12,	10
100054,	12,	10
100055,	12,	10
100056,	12,	10
100057,	12,	5
100058,	11,	4
100059,	11,	4
100060,	11,	4
100061,	11,	4
100062,	11,	4
100063,	11,	4
100064,	11,	4
100065,	11,	4
100066,	11,	4
100067,	11,	4
100068,	11,	4
100070,	5,	0
100071,	4.5,	3.5
100072,	4,	3.5